<?xml version="1.0" encoding="UTF-8" standalone="no"?>
<!-- Created with Inkscape (http://www.inkscape.org/) -->

<svg
   xmlns:osb="http://www.openswatchbook.org/uri/2009/osb"
   xmlns:dc="http://purl.org/dc/elements/1.1/"
   xmlns:cc="http://creativecommons.org/ns#"
   xmlns:rdf="http://www.w3.org/1999/02/22-rdf-syntax-ns#"
   xmlns:svg="http://www.w3.org/2000/svg"
   xmlns="http://www.w3.org/2000/svg"
   xmlns:xlink="http://www.w3.org/1999/xlink"
   xmlns:sodipodi="http://sodipodi.sourceforge.net/DTD/sodipodi-0.dtd"
   xmlns:inkscape="http://www.inkscape.org/namespaces/inkscape"
   width="297mm"
   height="210mm"
   viewBox="0 0 297 210"
   version="1.1"
   id="svg8"
   enable-background="new"
   inkscape:version="0.92.4 5da689c313, 2019-01-14"
   sodipodi:docname="visplay.svg"
   inkscape:export-filename="/home/jack/Pictures/visplay.svg.png"
   inkscape:export-xdpi="96"
   inkscape:export-ydpi="96">
  <defs
     id="defs2">
    <linearGradient
       id="linearGradient979"
       inkscape:collect="always">
      <stop
         id="stop975"
         offset="0"
         style="stop-color:#000000;stop-opacity:1" />
      <stop
         id="stop977"
         offset="1"
         style="stop-color:#337388;stop-opacity:1" />
    </linearGradient>
    <linearGradient
       inkscape:collect="always"
       id="TV-4">
      <stop
         style="stop-color:#006c90;stop-opacity:1;"
         offset="0"
         id="stop933" />
      <stop
         style="stop-color:#ffab00;stop-opacity:1"
         offset="1"
         id="stop935" />
    </linearGradient>
    <linearGradient
       id="linearGradient4659"
       osb:paint="solid">
      <stop
         style="stop-color:#006c90;stop-opacity:1;"
         offset="0"
         id="stop4657" />
    </linearGradient>
    <linearGradient
       inkscape:collect="always"
       id="linearGradient4653">
      <stop
         style="stop-color:#000000;stop-opacity:0.15294118"
         offset="0"
         id="stop4649" />
      <stop
         style="stop-color:#ffffff;stop-opacity:0.03921569"
         offset="1"
         id="stop4651" />
    </linearGradient>
    <linearGradient
       inkscape:collect="always"
       id="linearGradient4607">
      <stop
         style="stop-color:#876a51;stop-opacity:1"
         offset="0"
         id="stop4603" />
      <stop
         style="stop-color:#b78d73;stop-opacity:1"
         offset="1"
         id="stop4605" />
    </linearGradient>
    <filter
       inkscape:collect="always"
       style="color-interpolation-filters:sRGB"
       id="filter4571">
      <feBlend
         inkscape:collect="always"
         mode="darken"
         in2="BackgroundImage"
         id="feBlend4573" />
    </filter>
    <filter
       inkscape:collect="always"
       style="color-interpolation-filters:sRGB"
       id="filter4599"
       x="-0.040815618"
       width="1.0816312"
       y="-0.05825387"
       height="1.1165077">
      <feGaussianBlur
         inkscape:collect="always"
         stdDeviation="2.0953931"
         id="feGaussianBlur4601" />
    </filter>
    <linearGradient
       inkscape:collect="always"
       xlink:href="#linearGradient4607"
       id="linearGradient4609"
       x1="236.8008"
       y1="181.00504"
       x2="33.141415"
       y2="275.35117"
       gradientUnits="userSpaceOnUse" />
    <linearGradient
       inkscape:collect="always"
       xlink:href="#linearGradient4653"
       id="linearGradient4655"
       x1="48.910324"
       y1="194.49838"
       x2="206.86661"
       y2="77.968857"
       gradientUnits="userSpaceOnUse"
       gradientTransform="matrix(0.73293415,0,0,1.1228743,5.3818432,-17.786788)" />
    <filter
       inkscape:collect="always"
       style="color-interpolation-filters:sRGB"
       id="filter904"
       x="-0.086671374"
       width="1.1733427"
       y="-0.053789484"
       height="1.107579">
      <feGaussianBlur
         inkscape:collect="always"
         stdDeviation="1.4863936"
         id="feGaussianBlur906" />
    </filter>
    <filter
       inkscape:collect="always"
       style="color-interpolation-filters:sRGB"
       id="filter908"
       x="-0.086671374"
       width="1.1733427"
       y="-0.053789484"
       height="1.107579">
      <feGaussianBlur
         inkscape:collect="always"
         stdDeviation="1.4863936"
         id="feGaussianBlur910" />
    </filter>
    <linearGradient
       inkscape:collect="always"
       xlink:href="#TV-4"
       id="linearGradient939"
       x1="90.163743"
       y1="71.099047"
       x2="271.14391"
       y2="71.099047"
       gradientUnits="userSpaceOnUse"
       gradientTransform="translate(-12.662203,-0.75595239)" />
    <filter
       inkscape:collect="always"
       style="color-interpolation-filters:sRGB"
       id="filter1025"
       x="-0.048989165"
       width="1.0979783"
       y="-0.04704999"
       height="1.0941">
      <feGaussianBlur
         inkscape:collect="always"
         stdDeviation="0.60006381"
         id="feGaussianBlur1027" />
    </filter>
    <filter
       inkscape:collect="always"
       style="color-interpolation-filters:sRGB"
       id="filter1025-4"
       x="-0.048989166"
       width="1.0979784"
       y="-0.047049992"
       height="1.0941">
      <feGaussianBlur
         inkscape:collect="always"
         stdDeviation="0.60006381"
         id="feGaussianBlur1027-8" />
    </filter>
    <filter
       inkscape:collect="always"
       style="color-interpolation-filters:sRGB"
       id="filter1025-4-2"
       x="-0.048989166"
       width="1.0979784"
       y="-0.047049992"
       height="1.0941">
      <feGaussianBlur
         inkscape:collect="always"
         stdDeviation="0.60006381"
         id="feGaussianBlur1027-8-7" />
    </filter>
    <radialGradient
       inkscape:collect="always"
       xlink:href="#linearGradient979"
       id="radialGradient1108"
       cx="121.64122"
       cy="123.2259"
       fx="121.64122"
       fy="123.2259"
       r="70.378166"
       gradientTransform="matrix(2.1244881,0.31181197,-0.27000536,1.8396439,-91.306981,-149.95657)"
       gradientUnits="userSpaceOnUse" />
    <filter
       inkscape:collect="always"
       style="color-interpolation-filters:sRGB"
       id="filter1190"
       x="-0.048081406"
       width="1.0961628"
       y="-0.047917164"
       height="1.0958343">
      <feGaussianBlur
         inkscape:collect="always"
         stdDeviation="0.22984387"
         id="feGaussianBlur1192" />
    </filter>
    <filter
       inkscape:collect="always"
       style="color-interpolation-filters:sRGB"
       id="filter1190-4"
       x="-0.048081405"
       width="1.0961628"
       y="-0.047917165"
       height="1.0958343">
      <feGaussianBlur
         inkscape:collect="always"
         stdDeviation="0.22984387"
         id="feGaussianBlur1192-0" />
    </filter>
  </defs>
  <sodipodi:namedview
     id="base"
     pagecolor="#ffffff"
     bordercolor="#666666"
     borderopacity="1.0"
     inkscape:pageopacity="0.0"
     inkscape:pageshadow="2"
     inkscape:zoom="1.4"
     inkscape:cx="291.71709"
     inkscape:cy="433.78588"
     inkscape:document-units="px"
     inkscape:current-layer="layer5"
     showgrid="false"
     inkscape:window-width="1920"
     inkscape:window-height="2160"
     inkscape:window-x="0"
     inkscape:window-y="0"
     inkscape:window-maximized="0" />
  <metadata
     id="metadata5">
    <rdf:RDF>
      <cc:Work
         rdf:about="">
        <dc:format>image/svg+xml</dc:format>
        <dc:type
           rdf:resource="http://purl.org/dc/dcmitype/StillImage" />
        <dc:title></dc:title>
      </cc:Work>
    </rdf:RDF>
  </metadata>
  <g
     inkscape:groupmode="layer"
     id="layer2"
     inkscape:label="Layer 2">
    <text
       xml:space="preserve"
       style="font-style:normal;font-variant:normal;font-weight:normal;font-stretch:normal;font-size:10.58333302px;line-height:1.25;font-family:Bariol;-inkscape-font-specification:Bariol;letter-spacing:0px;word-spacing:0px;fill:url(#linearGradient939);fill-opacity:1;stroke:none;stroke-width:0.26458332;filter:url(#filter4571)"
       x="88.900215"
       y="86.567345"
       id="text4677"><tspan
         sodipodi:role="line"
         id="tspan4675"
         x="88.900215"
         y="86.567345"
         style="font-style:normal;font-variant:normal;font-weight:normal;font-stretch:normal;font-size:81.1388855px;font-family:Bariol;-inkscape-font-specification:Bariol;letter-spacing:2.64583325px;fill:url(#linearGradient939);fill-opacity:1;stroke-width:0.26458332">isplay</tspan></text>
    <rect
       style="opacity:0.11700003;fill:#040404;fill-opacity:1;fill-rule:evenodd;stroke:none;stroke-width:0.71225834;stroke-miterlimit:4;stroke-dasharray:none;stroke-opacity:1;filter:url(#filter904)"
       id="rect4520-3-6"
       width="13.096207"
       height="67.351921"
       x="-105.33489"
       y="-25.231676"
       transform="matrix(-0.86425996,-0.41460061,-0.41886837,0.8554542,-1.1624881,8.4553955)"
       inkscape:transform-center-x="-3.3369678"
       inkscape:transform-center-y="0.25406832"
       rx="7.9375"
       ry="7.9375" />
    <rect
       style="opacity:0.11700003;fill:#040404;fill-opacity:1;fill-rule:evenodd;stroke:none;stroke-width:0.71225834;stroke-miterlimit:4;stroke-dasharray:none;stroke-opacity:1;filter:url(#filter908)"
       id="rect4520-36"
       width="13.096207"
       height="67.351921"
       x="10.990959"
       y="31.146299"
       transform="rotate(-25.857405,14.136707,15.811671)"
       rx="7.9375"
       ry="7.9375" />
  </g>
  <g
     inkscape:groupmode="layer"
     id="layer3"
     inkscape:label="Layer 3"
     style="">
    <rect
       style="opacity:0.2;fill:#000000;fill-opacity:1;fill-rule:evenodd;stroke:none;stroke-width:0.71225828;stroke-miterlimit:4;stroke-dasharray:none;stroke-opacity:1;filter:url(#filter4599)"
       id="rect4543"
       width="123.21125"
       height="86.328056"
       x="36.615925"
       y="83.314247"
       rx="7.9375"
       ry="7.9375"
       transform="matrix(1.7223845,0,0,1.0947211,-24.582457,-6.2338673)" />
    <rect
       style="opacity:1;fill:#aeaeae;fill-opacity:1;fill-rule:evenodd;stroke:none;stroke-width:0.7704156;stroke-miterlimit:4;stroke-dasharray:none;stroke-opacity:1"
       id="rect4520-3"
       width="14.182087"
       height="72.766327"
       x="-99.068771"
       y="-7.7148528"
       transform="matrix(-0.90052567,-0.43480285,-0.43746515,0.89923537,0,0)"
       inkscape:transform-center-x="-3.7652865"
       inkscape:transform-center-y="0.28854203"
       rx="8.595643"
       ry="8.5755939" />
    <rect
       style="opacity:1;fill:#aeaeae;fill-opacity:1;fill-rule:evenodd;stroke:none;stroke-width:0.75482267;stroke-miterlimit:4;stroke-dasharray:none;stroke-opacity:1"
       id="rect4520"
       width="13.924057"
       height="71.145027"
       x="-6.9396625"
       y="36.833176"
       transform="matrix(0.90166634,-0.43243243,0.43985012,0.8980712,0,0)"
       rx="7.9375"
       ry="7.9375" />
  </g>
  <g
     inkscape:label="Layer 1"
     inkscape:groupmode="layer"
     id="layer1"
     transform="translate(0,-87)">
    <rect
       style="opacity:1;fill:url(#linearGradient4609);fill-opacity:1;fill-rule:evenodd;stroke:none;stroke-width:0.71225828;stroke-miterlimit:4;stroke-dasharray:none;stroke-opacity:1"
       id="rect4518"
       width="214.35016"
       height="98.889725"
       x="27.26149"
       y="178.06508"
       rx="7.9375"
       ry="7.9375" />
  </g>
  <g
     inkscape:groupmode="layer"
     id="layer6"
     inkscape:label="Layer 5">
    <rect
       style="opacity:1;fill:url(#linearGradient4655);fill-opacity:1;fill-rule:evenodd;stroke:none;stroke-width:0.63461298;stroke-miterlimit:4;stroke-dasharray:none;stroke-opacity:1"
       id="rect4646"
       width="145.74287"
       height="91.533569"
       x="31.04356"
       y="94.67157"
       rx="5.7405081"
       ry="8.7128477" />
  </g>
  <g
     inkscape:groupmode="layer"
     id="layer4"
     inkscape:label="Layer 6">
    <rect
       style="opacity:0.15;fill:#040404;fill-opacity:1;fill-rule:evenodd;stroke:#464a48;stroke-width:0.69663882;stroke-miterlimit:4;stroke-dasharray:none;stroke-opacity:0;filter:url(#filter1025-4)"
       id="rect1023-2"
       width="24.395084"
       height="32.899548"
       x="222.88718"
       y="-62.687634"
       rx="20.238884"
       ry="13.235451"
       inkscape:transform-center-x="-9.8945815"
       inkscape:transform-center-y="-12.474212"
       transform="matrix(0.82515866,0.46462527,-0.53588677,0.75920434,-19.540809,83.453533)" />
    <path
       style="opacity:1;fill:#828282;fill-opacity:1;fill-rule:evenodd;stroke:#464a48;stroke-width:0.43305773;stroke-miterlimit:4;stroke-dasharray:none;stroke-opacity:0"
       d="m 188.77486,150.58869 a 12.140344,12.04585 58.47917 0 0 -2.51644,15.62318 12.140344,12.04585 58.47917 0 0 16.6155,4.0514 12.140344,12.04585 58.47917 0 0 3.92135,-16.64667 12.140344,12.04585 58.47917 0 0 -15.45156,-4.6731 l 5.60898,9.14554 c 0.0958,0.15619 0.15547,0.32447 0.18135,0.49438 0.0259,0.16992 0.0181,0.3415 -0.0213,0.50592 -0.0394,0.16443 -0.11043,0.32161 -0.21053,0.46132 -0.1001,0.13972 -0.22941,0.26195 -0.3856,0.35774 l -0.34448,0.21127 c -0.15619,0.0958 -0.32376,0.15564 -0.49367,0.18152 -0.16992,0.0259 -0.34221,0.0179 -0.50663,-0.0215 -0.16443,-0.0394 -0.3209,-0.11026 -0.46061,-0.21036 -0.13972,-0.1001 -0.26266,-0.22958 -0.35845,-0.38577 z"
       id="path1079"
       inkscape:connector-curvature="0" />
    <path
       style="opacity:1;fill:#e0e0e0;fill-opacity:1;fill-rule:evenodd;stroke:#464a48;stroke-width:0.43305773;stroke-miterlimit:4;stroke-dasharray:none;stroke-opacity:0"
       d="m 188.77486,150.58869 5.5779,9.09489 c 0.0958,0.15619 0.21873,0.28567 0.35845,0.38577 0.13971,0.1001 0.29618,0.17095 0.46061,0.21036 0.16442,0.0394 0.33671,0.0474 0.50663,0.0215 0.16991,-0.0259 0.33748,-0.0857 0.49367,-0.18152 l 0.34448,-0.21127 c 0.15619,-0.0958 0.2855,-0.21802 0.3856,-0.35774 0.1001,-0.13971 0.17112,-0.29689 0.21053,-0.46132 0.0394,-0.16442 0.0472,-0.336 0.0213,-0.50592 -0.0259,-0.16991 -0.0856,-0.33819 -0.18135,-0.49438 l -5.60898,-9.14554 a 12.140344,12.04585 58.47917 0 0 -1.16394,0.6217 12.140344,12.04585 58.47917 0 0 -1.40491,1.02349 z"
       id="path985-4"
       inkscape:connector-curvature="0" />
    <rect
       style="opacity:0.15;fill:#040404;fill-opacity:1;fill-rule:evenodd;stroke:#464a48;stroke-width:0.69663882;stroke-miterlimit:4;stroke-dasharray:none;stroke-opacity:0;filter:url(#filter1025-4-2)"
       id="rect1023-2-7"
       width="24.395084"
       height="32.899548"
       x="222.88718"
       y="-62.687634"
       rx="20.238884"
       ry="13.235451"
       inkscape:transform-center-x="-9.8945815"
       inkscape:transform-center-y="-12.474212"
       transform="matrix(0.82515866,0.46462527,-0.53588677,0.75920434,-20.218479,43.454974)" />
    <path
       inkscape:connector-curvature="0"
       style="opacity:1;fill:#828282;fill-opacity:1;fill-rule:evenodd;stroke:#464a48;stroke-width:0.43305776;stroke-miterlimit:4;stroke-dasharray:none;stroke-opacity:0"
       d="m 206.58456,114.27201 a 12.04585,12.140345 70.502707 0 0 -14.75624,-5.71574 12.04585,12.140345 70.502707 0 0 -7.42375,15.40703 12.04585,12.140345 70.502707 0 0 15.4646,7.30304 12.04585,12.140345 70.502707 0 0 7.78937,-14.13911 l -10.11335,3.58079 c -0.17271,0.0611 -0.34974,0.0845 -0.5213,0.0744 -0.17158,-0.0101 -0.33779,-0.0534 -0.49039,-0.12624 -0.15259,-0.0728 -0.29152,-0.17502 -0.4076,-0.30165 -0.1158,-0.12705 -0.2084,-0.27895 -0.26955,-0.45167 l -0.13488,-0.38094 c -0.0612,-0.17271 -0.0848,-0.34907 -0.0747,-0.52065 0.0101,-0.17157 0.0538,-0.33844 0.12656,-0.49104 0.0728,-0.15259 0.17468,-0.29089 0.30204,-0.40643 0.12697,-0.11586 0.27925,-0.20907 0.45196,-0.27022 z"
       id="path1079-9" />
    <path
       inkscape:connector-curvature="0"
       style="opacity:1;fill:#e0e0e0;fill-opacity:1;fill-rule:evenodd;stroke:#464a48;stroke-width:0.43305776;stroke-miterlimit:4;stroke-dasharray:none;stroke-opacity:0"
       d="m 206.58456,114.27201 -10.05733,3.56095 c -0.17271,0.0612 -0.32496,0.15441 -0.45197,0.27022 -0.12696,0.11585 -0.2289,0.25408 -0.30204,0.40643 -0.0728,0.15258 -0.11647,0.31946 -0.12656,0.49104 -0.0101,0.17158 0.0136,0.34794 0.0747,0.52065 l 0.13488,0.38094 c 0.0611,0.17272 0.15378,0.32464 0.26955,0.45167 0.11586,0.12696 0.25472,0.22924 0.40761,0.30165 0.15258,0.0728 0.31882,0.11613 0.49038,0.12624 0.17158,0.0101 0.34859,-0.0132 0.5213,-0.0744 l 10.11335,-3.58079 a 12.04585,12.140345 70.502707 0 0 -0.36555,-1.26793 12.04585,12.140345 70.502707 0 0 -0.70839,-1.58731 z"
       id="path985-4-9" />
    <rect
       style="opacity:0.2;fill:#000000;fill-opacity:1;fill-rule:evenodd;stroke:#464a48;stroke-width:0.69097608;stroke-miterlimit:4;stroke-dasharray:none;stroke-opacity:0;filter:url(#filter1190)"
       id="rect1186"
       width="10.36637"
       height="11.865479"
       x="238.34926"
       y="-91.855667"
       rx="5.1147099"
       transform="matrix(0.68992459,0.73458325,-0.72879829,0.69603988,-4.5630894,-0.84683175)" />
  </g>
  <g
     inkscape:groupmode="layer"
     id="layer5"
     inkscape:label="Layer 4">
    <path
       style="opacity:1;fill:url(#radialGradient1108);fill-opacity:1;fill-rule:evenodd;stroke:#464a48;stroke-width:0.66312474;stroke-miterlimit:4;stroke-dasharray:none;stroke-opacity:0"
       inkscape:transform-center-x="0.56696428"
       inkscape:transform-center-y="2.4568452"
       d="m 39.652478,97.867676 c 42.546791,-1.732878 85.391092,-1.08571 128.290202,0 3.26838,0.08272 5.59536,4.136354 5.9015,9.253814 1.33342,22.28953 1.33927,44.57906 0,66.86859 -0.30748,5.11738 -2.63499,9.11557 -5.9015,9.25381 -42.59909,1.80279 -85.335187,2.11205 -128.290202,0 -3.265485,-0.16056 -5.644043,-4.13367 -5.901498,-9.25381 -1.108396,-22.04322 -2.038427,-44.12608 0,-66.86859 0.457667,-5.10614 2.634776,-9.120764 5.901498,-9.253814 z"
       id="rect4537"
       inkscape:connector-curvature="0"
       sodipodi:nodetypes="sssssssss" />
    <circle
       style="opacity:1;fill:#36766c;fill-opacity:1;fill-rule:evenodd;stroke:#464a48;stroke-width:0.71225828;stroke-miterlimit:4;stroke-dasharray:none;stroke-opacity:0"
       id="path1161"
       cx="224.97412"
       cy="119.39564"
       r="5.1449385" />
    <rect
       style="opacity:0.2;fill:#000000;fill-opacity:1;fill-rule:evenodd;stroke:#464a48;stroke-width:0.69097608;stroke-miterlimit:4;stroke-dasharray:none;stroke-opacity:0;filter:url(#filter1190-4)"
       id="rect1186-8"
       width="10.36637"
       height="11.865479"
       x="238.34926"
       y="-91.855667"
       rx="5.1147099"
       transform="matrix(0.68992459,0.73458324,-0.72879829,0.69603988,-4.0951691,40.330175)" />
    <circle
       style="opacity:1;fill:#c39316;fill-opacity:1;fill-rule:evenodd;stroke:#464a48;stroke-width:0.71225822;stroke-miterlimit:4;stroke-dasharray:none;stroke-opacity:0"
       id="path1161-0"
       cx="225.44202"
       cy="160.57265"
       r="5.1449385" />
  </g>
</svg>
